<div id='lmap' name='lmap' style="width: 50%; align: left;background-color: blue;" >
		<?php echo $map['js']; ?>
		<?php echo $map['html']; ?>
</div>
<div style="width: 50%; display: inherit;background-color: red;align: left" id='hmap' class='hmap'></div>


<?php
$attributes = array("class" => "form-horizontal", "id" => "formMap", "name" => "formMap");
echo form_open("users/savepath1", $attributes);
echo "<fieldset>";

for($i=0;$i<=9;$i++)
{
	echo "<input type='text' name=\"hmlocation[]\" id=\"hmlocation$i\" value='' class='hmlocation'>";
}
?>          
<input type='hidden' name='total_clicks' id='total_clicks' value='0'>

<div class="col-lg-12 col-sm-12 text-center">
	<input id="btn_save1" name="btn_save1" type="submit" class="btn btn_save1" value="Save Path" />
	<input id="btn_save" name="btn_save" type="button" class="btn btn_save" value="Save Path" />
	<input id="btn_cancel" name="btn_cancel" type="reset" class="btn btn-default" value="Clear Path" />
	<input id="btn_hmap" name="btn_hmap" type="button" class="btn btn_hmap" value="Show Heat Map" />
</div>
</fieldset>
<?php echo form_close(); ?>
<script src="http://ajax.googleapis.com/ajax/libs/jquery/1.11.1/jquery.min.js"></script>
<script>


function saveclicks(latlan)
{
	//alert(latlan);
	totclick=$('#total_clicks').val();
	if(totclick<10)
	{
		divname="#hmlocation"+totclick;
		
		$( divname ).val(latlan);
		totclick=Number(totclick) + Number(1);
		
		$('#total_clicks').val(totclick);
	}
	else
	{
		alert('Only 10 selection allowed');return false;
	}

}


$(document).ready(function() {	
	$(".btn_hmap").click(function(event) 
	{
		
		var data = $('input[name^="hmlocation\\["]').serializeArray();
		
		//event.preventDefault();
		jQuery.ajax({
			type: "POST",
			url: "<?php echo base_url(); ?>" + "users/ajax_post_controller",
			dataType: 'html',
			data: {'allval' : data},
			success: function(res) 
			{
				if (res)
				{
					//alert('ffff');
					$("#lmap").hide();
					//$("#map").val(res);
					$("#hmap").html(res);			
				}			
			}
		});
	});

	$(".btn_save").click(function(event) 
	{
		
		var data = $('input[name^="hmlocation\\["]').serializeArray();
		//alert(data);
		//event.preventDefault();
		
		jQuery.ajax({
			type: "POST",
			url: "<?php echo base_url(); ?>" + "users/savepath",
			dataType: 'html',
			data: {'allval' : data},
			success: function(res) 
			{
				if (res)
				{					
					alert(res);		
					$("#lmap").html(res);
					
				}			
			}
		});
	});


});
</script>
